<?xml version="1.0" encoding="UTF-8" standalone="no"?>
<!-- Created with Inkscape (http://www.inkscape.org/) -->

<svg
   xmlns:dc="http://purl.org/dc/elements/1.1/"
   xmlns:cc="http://creativecommons.org/ns#"
   xmlns:rdf="http://www.w3.org/1999/02/22-rdf-syntax-ns#"
   xmlns:svg="http://www.w3.org/2000/svg"
   xmlns="http://www.w3.org/2000/svg"
   xmlns:sodipodi="http://sodipodi.sourceforge.net/DTD/sodipodi-0.dtd"
   xmlns:inkscape="http://www.inkscape.org/namespaces/inkscape"
   width="64"
   height="64"
   id="svg2"
   version="1.1"
   inkscape:version="0.48.4 r9939"
   sodipodi:docname="logo-laid-out-5.svg">
  <defs
     id="defs4" />
  <sodipodi:namedview
     id="base"
     pagecolor="#000000"
     bordercolor="#666666"
     borderopacity="1.0"
     inkscape:pageopacity="1"
     inkscape:pageshadow="2"
     inkscape:zoom="2.8284271"
     inkscape:cx="96.966936"
     inkscape:cy="26.307921"
     inkscape:document-units="px"
     inkscape:current-layer="layer1"
     showgrid="false"
     inkscape:window-width="1366"
     inkscape:window-height="716"
     inkscape:window-x="0"
     inkscape:window-y="0"
     inkscape:window-maximized="1"
     showborder="false"
     inkscape:showpageshadow="false"
     showguides="true">
    <inkscape:grid
       type="xygrid"
       id="grid3104"
       empspacing="5"
       visible="true"
       enabled="true"
       snapvisiblegridlinesonly="true" />
  </sodipodi:namedview>
  <metadata
     id="metadata7">
    <rdf:RDF>
      <cc:Work
         rdf:about="">
        <dc:format>image/svg+xml</dc:format>
        <dc:type
           rdf:resource="http://purl.org/dc/dcmitype/StillImage" />
        <dc:title></dc:title>
      </cc:Work>
    </rdf:RDF>
  </metadata>
  <g
     inkscape:label="Layer 1"
     inkscape:groupmode="layer"
     id="layer1"
     transform="translate(0,-988.36218)">
    <path
       sodipodi:type="arc"
       style="fill:#ffffe8;fill-opacity:1;fill-rule:evenodd;stroke:#000000;stroke-width:0;stroke-linecap:butt;stroke-linejoin:miter;stroke-miterlimit:0;stroke-opacity:1;stroke-dasharray:none"
       id="path2985"
       sodipodi:cx="37.32143"
       sodipodi:cy="35.517857"
       sodipodi:rx="21.875"
       sodipodi:ry="21.875"
       d="m 59.19643,35.517857 a 21.875,21.875 0 1 1 -43.75,0 21.875,21.875 0 1 1 43.75,0 z"
       transform="matrix(1.4301676,0,0,1.4301676,-21.3759,969.56569)" />
    <path
       sodipodi:type="arc"
       style="fill:#000000;fill-opacity:1;stroke-width:0;stroke-miterlimit:0;stroke-dasharray:none"
       id="path3002"
       sodipodi:cx="27.232143"
       sodipodi:cy="35.785713"
       sodipodi:rx="9.4642859"
       sodipodi:ry="9.4642859"
       d="m 36.696429,35.785713 a 9.4642859,9.4642859 0 1 1 -18.928571,0 9.4642859,9.4642859 0 1 1 18.928571,0 z"
       transform="matrix(0.46865859,0,0,0.46865859,30.475523,972.22867)" />
    <path
       inkscape:connector-curvature="0"
       style="font-size:36px;font-style:normal;font-variant:normal;font-weight:bold;font-stretch:normal;text-align:start;line-height:125%;letter-spacing:-2.0999999px;word-spacing:0px;writing-mode:lr-tb;text-anchor:start;fill:#000000;fill-opacity:1;stroke:none;font-family:Lato Latin;-inkscape-font-specification:Lato Latin Bold"
       id="path3005"
       d="m 12.886294,994.31379 3.501062,0 c 0.319889,10e-6 0.592391,0.077 0.817506,0.23104 0.225106,0.15404 0.373205,0.34952 0.444298,0.58647 l 2.612466,9.7389 c 0.130319,0.5332 0.242874,1.0545 0.337665,1.5639 0.09477,0.5095 0.183636,1.0131 0.266579,1.5106 0.130319,-0.4975 0.266569,-1.0011 0.408753,-1.5106 0.154014,-0.5094 0.313961,-1.0307 0.479841,-1.5639 l 3.021221,-9.77444 c 0.07108,-0.23695 0.207327,-0.43244 0.408754,-0.58647 0.213249,-0.15401 0.46798,-0.23103 0.76419,-0.23104 l 1.937135,0 c 0.308032,1e-5 0.568686,0.077 0.781964,0.23104 0.225094,0.15403 0.373193,0.34952 0.444297,0.58647 l 2.932361,9.77444 c 0.154004,0.545 0.296179,1.0722 0.426526,1.5817 0.142155,0.5095 0.272482,1.019 0.390981,1.5284 0.09476,-0.5094 0.19547,-1.0189 0.302122,-1.5284 0.106611,-0.5095 0.231014,-1.0367 0.373209,-1.5817 l 2.683555,-9.7389 c 0.08292,-0.23695 0.231011,-0.43243 0.444298,-0.58647 0.213238,-0.15401 0.467968,-0.23103 0.76419,-0.23104 l 3.341115,0 -5.793635,18.23391 -3.518833,0 c -0.402848,0 -0.681274,-0.2606 -0.835278,-0.782 l -3.270028,-10.5387 c -0.225125,-0.7228 -0.396919,-1.4218 -0.515385,-2.09708 -0.142188,0.71088 -0.319907,1.42168 -0.533156,2.13258 l -3.323342,10.5032 c -0.142185,0.5214 -0.456155,0.782 -0.94191,0.782 l -3.376659,0 -5.775862,-18.23391" />
    <path
       style="font-size:36px;font-style:normal;font-variant:normal;font-weight:bold;font-stretch:normal;text-align:start;line-height:125%;letter-spacing:-2.0999999px;word-spacing:0px;writing-mode:lr-tb;text-anchor:start;fill:#000000;fill-opacity:1;stroke:none;font-family:Lato Latin;-inkscape-font-specification:Lato Latin Bold"
       d="m 45.389441,994.31379 0,18.23391 -4.407428,0 0,-18.23391 4.407428,0"
       id="path3109"
       inkscape:connector-curvature="0" />
    <path
       inkscape:connector-curvature="0"
       style="font-size:36px;font-style:normal;font-variant:normal;font-weight:bold;font-stretch:normal;text-align:start;line-height:125%;letter-spacing:-2.0999999px;word-spacing:0px;writing-mode:lr-tb;text-anchor:start;fill:#000000;fill-opacity:1;stroke:none;font-family:Lato Latin;-inkscape-font-specification:Lato Latin Bold"
       id="path3009"
       d="m 51.859209,986.13873 0,26.40897 -4.389656,0 0,-26.40897 4.389656,0" />
    <path
       inkscape:connector-curvature="0"
       style="font-size:36px;font-style:normal;font-variant:normal;font-weight:bold;font-stretch:normal;text-align:start;line-height:125%;letter-spacing:-2.0999999px;word-spacing:0px;writing-mode:lr-tb;text-anchor:start;fill:#000000;fill-opacity:1;stroke:none;font-family:Lato Latin;-inkscape-font-specification:Lato Latin Bold"
       id="path3011"
       d="m 58.164844,986.13873 0,26.40897 -4.389655,0 0,-26.40897 4.389655,0" />
    <path
       inkscape:connector-curvature="0"
       id="path3053"
       style="font-size:36px;font-style:normal;font-variant:normal;font-weight:300;font-stretch:normal;text-align:start;line-height:125%;letter-spacing:-3.49000001px;word-spacing:0px;writing-mode:lr-tb;text-anchor:start;fill:#000000;fill-opacity:1;stroke:none;font-family:Lato Latin Light;-inkscape-font-specification:'Lato Latin Light, Light'"
       d="m 12.803712,1012.452 c -0.105131,0.1985 -0.256965,0.2977 -0.455501,0.2977 -0.151849,0 -0.350402,-0.1051 -0.595657,-0.3153 -0.233605,-0.2219 -0.554791,-0.4613 -0.963561,-0.7182 -0.408796,-0.2687 -0.9226954,-0.5139 -1.5416981,-0.7359 -0.6073474,-0.2219 -1.3606765,-0.3329 -2.2599899,-0.3329 -0.8993331,0 -1.6935406,0.1286 -2.3826251,0.3855 -0.6774197,0.257 -1.2497163,0.6073 -1.7168914,1.0512 -0.4555073,0.4437 -0.805893,0.9576 -1.0511582,1.5417 -0.2335951,0.5839 -0.3503904,1.1971 -0.3503861,1.8394 -4.3e-6,0.841 0.1751885,1.5359 0.5255792,2.0848 0.3620602,0.549 0.8350809,1.0162 1.4190634,1.4016 0.5839698,0.3855 1.2438628,0.7124 1.979681,0.9811 0.7474813,0.257 1.5124899,0.5139 2.2950285,0.7709 0.7825175,0.2569 1.5416865,0.5431 2.2775095,0.8584 0.7474762,0.3036 1.4132092,0.689 1.9971992,1.1562 0.583961,0.4673 1.051143,1.0453 1.401544,1.7344 0.362049,0.6775 0.543082,1.5243 0.543099,2.5403 -1.7e-5,1.0396 -0.18105,2.0206 -0.543099,2.9433 -0.350401,0.911 -0.864301,1.7052 -1.541698,2.3827 -0.677427,0.6774 -1.506673,1.2146 -2.4877403,1.6117 -0.9810922,0.3855 -2.1023263,0.5782 -3.3637058,0.5782 -1.6351422,0 -3.0425247,-0.2862 -4.2221518,-0.8585 -1.17963657,-0.584 -2.21327439,-1.3782 -3.1009164,-2.3827 l 0.49054031,-0.7708 c 0.1401523,-0.1751 0.3036655,-0.2627 0.4905404,-0.2627 0.1051132,0 0.2394278,0.07 0.402944,0.2101 0.16351041,0.1402 0.36206231,0.3154 0.59565628,0.5257 0.23358691,0.1985 0.51389551,0.4204 0.84092651,0.6657 0.3270222,0.2335 0.7066068,0.4555 1.1387547,0.6657 0.4321368,0.1985 0.9285166,0.3679 1.4891406,0.508 0.5606101,0.1403 1.1971441,0.2103 1.909604,0.2103 0.9810709,0 1.8570351,-0.146 2.6278952,-0.438 0.7708369,-0.3037 1.4190503,-0.7125 1.9446423,-1.2264 0.537245,-0.5139 0.946027,-1.1211 1.226351,-1.822 0.280294,-0.7124 0.420448,-1.4715 0.420463,-2.2775 -1.5e-5,-0.8759 -0.181048,-1.5942 -0.543098,-2.1548 -0.3504,-0.5723 -0.817581,-1.0454 -1.401545,-1.4191 -0.5839883,-0.3854 -1.2497211,-0.7066 -1.9971993,-0.9636 -0.7358212,-0.2569 -1.4949902,-0.508 -2.2775092,-0.7533 -0.782537,-0.2453 -1.5475458,-0.5197 -2.2950286,-0.8234 -0.7358166,-0.3037 -1.3957097,-0.6891 -1.9796811,-1.1562 -0.5839808,-0.4789 -1.05700157,-1.0688 -1.41906354,-1.7695 -0.35038885,-0.7124 -0.52558185,-1.6001 -0.52557905,-2.663 -2.8e-6,-0.8292 0.1576708,-1.6293 0.47302115,-2.4001 0.31534394,-0.7709 0.77668514,-1.4483 1.38402494,-2.0322 0.6073307,-0.5957 1.35482,-1.0687 2.2424706,-1.4191 0.8993164,-0.362 1.9212747,-0.5431 3.0658778,-0.5431 1.2847376,0 2.4351706,0.2044 3.4513023,0.6132 1.027784,0.4087 1.962146,1.0337 2.803088,1.8745 l -0.420464,0.806" />
    <path
       inkscape:connector-curvature="0"
       id="path3055"
       style="font-size:36px;font-style:normal;font-variant:normal;font-weight:300;font-stretch:normal;text-align:start;line-height:125%;letter-spacing:-3.6400001px;word-spacing:0px;writing-mode:lr-tb;text-anchor:start;fill:#000000;fill-opacity:1;stroke:none;font-family:Lato Latin Light;-inkscape-font-specification:'Lato Latin Light, Light'"
       d="m 14.351495,1034.2285 0,-25.4907 1.681853,0 0,11.0197 c 0.805883,-0.9927 1.722726,-1.7812 2.750531,-2.3651 1.039471,-0.584 2.201583,-0.876 3.486341,-0.876 0.957711,0 1.798636,0.1518 2.522779,0.4555 0.735797,0.3037 1.343132,0.7416 1.822008,1.3139 0.478846,0.5723 0.840911,1.2614 1.086197,2.0673 0.245253,0.806 0.367888,1.717 0.367905,2.733 l 0,11.1424 -1.681853,0 0,-11.1424 c -1.5e-5,-1.6351 -0.373759,-2.914 -1.121235,-3.8366 -0.747503,-0.9345 -1.886256,-1.4016 -3.416264,-1.4016 -1.144603,0 -2.20744,0.292 -3.188513,0.8759 -0.981087,0.5723 -1.857051,1.3724 -2.627896,2.4002 l 0,13.1045 -1.681853,0" />
    <path
       inkscape:connector-curvature="0"
       id="path3057"
       style="font-size:36px;font-style:normal;font-variant:normal;font-weight:300;font-stretch:normal;text-align:start;line-height:125%;letter-spacing:-4.51999998px;word-spacing:0px;writing-mode:lr-tb;text-anchor:start;fill:#000000;fill-opacity:1;stroke:none;font-family:Lato Latin Light;-inkscape-font-specification:'Lato Latin Light, Light'"
       d="m 40.740734,1034.2285 c -0.350399,0 -0.56647,-0.1636 -0.648214,-0.4906 l -0.24527,-2.2249 c -0.478873,0.4671 -0.957734,0.8876 -1.436583,1.2614 -0.467192,0.3737 -0.957732,0.689 -1.471621,0.9459 -0.513909,0.257 -1.068687,0.4498 -1.664334,0.5782 -0.595664,0.1401 -1.249717,0.2103 -1.962161,0.2103 -0.595662,0 -1.173798,-0.087 -1.734412,-0.2629 -0.560621,-0.1752 -1.06284,-0.4437 -1.50666,-0.8059 -0.432144,-0.362 -0.782531,-0.8234 -1.051157,-1.3839 -0.256953,-0.5723 -0.385426,-1.2556 -0.385426,-2.0498 0,-0.7359 0.210231,-1.4191 0.630695,-2.0498 0.420462,-0.6306 1.080354,-1.1796 1.979681,-1.6468 0.89932,-0.4671 2.049753,-0.8409 3.451303,-1.1213 1.413215,-0.2803 3.106745,-0.4438 5.080598,-0.4904 l 0,-1.822 c -1.3e-5,-1.6119 -0.350399,-2.8499 -1.051159,-3.7141 -0.689103,-0.8761 -1.716901,-1.314 -3.083397,-1.314 -0.840934,0 -1.559224,0.1168 -2.154874,0.3503 -0.583982,0.2336 -1.080362,0.4906 -1.489141,0.7709 -0.408787,0.2804 -0.741653,0.5373 -0.9986,0.7708 -0.256953,0.2336 -0.473024,0.3504 -0.648213,0.3504 -0.128479,0 -0.233595,-0.029 -0.315348,-0.087 -0.08175,-0.059 -0.151837,-0.1342 -0.210231,-0.2277 l -0.297829,-0.508 c 0.911001,-0.911 1.868722,-1.6002 2.873165,-2.0674 1.004435,-0.4671 2.143188,-0.7007 3.416264,-0.7007 0.934353,0 1.75192,0.1519 2.452703,0.4555 0.70076,0.292 1.278896,0.7183 1.73441,1.2789 0.467168,0.549 0.817554,1.2205 1.051159,2.0148 0.233577,0.7824 0.350371,1.6585 0.350386,2.6279 l 0,11.3525 -0.665734,0 m -7.007721,-0.9286 c 0.677407,0 1.296421,-0.07 1.857046,-0.2102 0.572289,-0.1518 1.097867,-0.3563 1.576738,-0.6132 0.490529,-0.2687 0.946031,-0.5839 1.366505,-0.9461 0.420452,-0.362 0.835075,-0.7532 1.243871,-1.1738 l 0,-4.5375 c -1.658505,0.046 -3.089247,0.1752 -4.292229,0.3855 -1.202999,0.1986 -2.195759,0.473 -2.978282,0.8234 -0.770853,0.3504 -1.34315,0.7709 -1.716891,1.2614 -0.362068,0.4788 -0.543102,1.0278 -0.543099,1.6468 -3e-6,0.584 0.09343,1.0921 0.28031,1.5242 0.198547,0.4205 0.455498,0.7709 0.770848,1.0512 0.327023,0.2685 0.700768,0.4671 1.121236,0.5956 0.420458,0.1284 0.85844,0.1927 1.313947,0.1927" />
    <path
       inkscape:connector-curvature="0"
       id="path3059"
       style="font-size:36px;font-style:normal;font-variant:normal;font-weight:300;font-stretch:normal;text-align:start;line-height:125%;letter-spacing:-5.40999985px;word-spacing:0px;writing-mode:lr-tb;text-anchor:start;fill:#000000;fill-opacity:1;stroke:none;font-family:Lato Latin Light;-inkscape-font-specification:'Lato Latin Light, Light'"
       d="m 44.054195,1013.7557 0,10.7592 0.805887,0 c 0.163508,0 0.315342,-0.023 0.455502,-0.068 0.151828,-0.045 0.315341,-0.1538 0.490541,-0.3248 l 6.990201,-6.4814 c 0.116785,-0.1368 0.245261,-0.2394 0.385424,-0.3079 0.140135,-0.08 0.315328,-0.1197 0.525579,-0.1197 l 1.471622,0 -7.690973,7.1313 c -0.21024,0.2393 -0.437991,0.4274 -0.683254,0.5642 0.186866,0.092 0.344539,0.1996 0.473022,0.325 0.140147,0.114 0.27446,0.2507 0.402944,0.4104 l 8.076398,8.5849 -1.454102,0 c -0.163533,0 -0.315367,-0.023 -0.455502,-0.068 -0.128494,-0.056 -0.25113,-0.1652 -0.367905,-0.3249 l -7.323068,-7.6614 c -0.09344,-0.1028 -0.18688,-0.1881 -0.28031,-0.2564 -0.08176,-0.068 -0.169359,-0.1197 -0.262789,-0.154 -0.09344,-0.045 -0.204397,-0.074 -0.332866,-0.085 -0.116801,-0.024 -0.262796,-0.034 -0.437983,-0.034 l -0.788368,0 0,8.5848 -1.681853,0 0,-20.4726"
       sodipodi:nodetypes="ccsccccsccccccsccccccscccc" />
    <path
       inkscape:connector-curvature="0"
       id="path3061"
       style="font-size:36px;font-style:normal;font-variant:normal;font-weight:300;font-stretch:normal;text-align:start;line-height:125%;letter-spacing:-3.49000001px;word-spacing:0px;writing-mode:lr-tb;text-anchor:start;fill:#000000;fill-opacity:1;stroke:none;font-family:Lato Latin Light;-inkscape-font-specification:'Lato Latin Light, Light'"
       d="m 59.931687,1016.5164 c 0.981071,0 1.892073,0.1693 2.733011,0.5081 0.840909,0.3387 1.57088,0.835 2.189916,1.4891 0.618995,0.6424 1.103696,1.4366 1.454101,2.3827 0.362046,0.946 0.54308,2.0322 0.543099,3.2586 -1.9e-5,0.2569 -0.03504,0.4321 -0.105116,0.5255 -0.07007,0.094 -0.186892,0.1401 -0.350386,0.1401 l -12.683976,0 0,0.333 c -4e-6,1.3081 0.15183,2.4585 0.455501,3.4513 0.303663,0.9927 0.735806,1.8278 1.296428,2.5052 0.560613,0.6658 1.238025,1.1679 2.032239,1.5066 0.794201,0.3387 1.681845,0.5081 2.662934,0.5081 0.875955,0 1.635123,-0.094 2.277509,-0.2803 0.642362,-0.1986 1.179616,-0.4146 1.611778,-0.6482 0.443804,-0.2452 0.79419,-0.4614 1.051158,-0.6482 0.256931,-0.1985 0.443803,-0.2979 0.560619,-0.2979 0.151813,0 0.268609,0.059 0.350386,0.1753 l 0.455501,0.5605 c -0.280328,0.3504 -0.654074,0.6775 -1.121235,0.9812 -0.455522,0.3036 -0.969421,0.5664 -1.541699,0.7883 -0.560637,0.2103 -1.167968,0.3796 -1.822009,0.508 -0.642386,0.1285 -1.2906,0.1928 -1.944642,0.1928 -1.191322,0 -2.277517,-0.2044 -3.258591,-0.6132 -0.981086,-0.4205 -1.822012,-1.0278 -2.52278,-1.822 -0.700776,-0.7942 -1.243872,-1.7636 -1.629295,-2.9082 -0.373746,-1.1563 -0.560619,-2.476 -0.560617,-3.9593 -2e-6,-1.2497 0.175191,-2.4002 0.525579,-3.4513 0.362062,-1.0629 0.875961,-1.9739 1.541698,-2.7331 0.677408,-0.7709 1.500815,-1.3723 2.470222,-1.8044 0.981074,-0.4322 2.090628,-0.6483 3.328667,-0.6483 m 0.01752,1.2439 c -0.899333,0 -1.70522,0.1402 -2.417664,0.4204 -0.712458,0.2803 -1.331472,0.6833 -1.857046,1.2089 -0.513904,0.5255 -0.934367,1.1562 -1.261389,1.892 -0.315352,0.7359 -0.525583,1.5593 -0.630695,2.4703 l 11.562741,0 c -1.9e-5,-0.9343 -0.134335,-1.7694 -0.402944,-2.5052 -0.25697,-0.7475 -0.624874,-1.3782 -1.103716,-1.8922 -0.478881,-0.5139 -1.051173,-0.9051 -1.716893,-1.1738 -0.654067,-0.2802 -1.378197,-0.4204 -2.172394,-0.4204" />
    <path
       inkscape:connector-curvature="0"
       id="path3073"
       style="font-size:27.17762375px;font-style:normal;font-variant:normal;font-weight:100;font-stretch:normal;text-align:start;line-height:125%;letter-spacing:-3.98928666px;word-spacing:0px;writing-mode:lr-tb;text-anchor:start;fill:#000000;fill-opacity:1;stroke:none;font-family:Lato Latin Hair;-inkscape-font-specification:Lato Latin Hair Thin"
       d="m 15.407211,1049.0849 c -2e-6,-0.2446 0.08153,-0.4529 0.244599,-0.6251 0.172122,-0.1811 0.380483,-0.2717 0.625085,-0.2717 0.244595,0 0.452957,0.091 0.625085,0.2717 0.18118,0.1722 0.271772,0.3805 0.271776,0.6251 -4e-6,0.2446 -0.0906,0.453 -0.271776,0.6251 -0.172128,0.1631 -0.38049,0.2446 -0.625085,0.2446 -0.244602,0 -0.452963,-0.082 -0.625085,-0.2446 -0.163069,-0.1721 -0.244601,-0.3805 -0.244599,-0.6251" />
    <path
       inkscape:connector-curvature="0"
       id="path3075"
       style="font-size:27.17762375px;font-style:normal;font-variant:normal;font-weight:100;font-stretch:normal;text-align:start;line-height:125%;letter-spacing:-2.41686726px;word-spacing:0px;writing-mode:lr-tb;text-anchor:start;fill:#000000;fill-opacity:1;stroke:none;font-family:Lato Latin Hair;-inkscape-font-specification:Lato Latin Hair Thin"
       d="m 21.527319,1048.1185 0,-11.6154 0.07111,0 c 0.11062,1e-4 0.165932,0.063 0.165934,0.1897 l 0.03556,2.2401 c 0.268652,-0.3951 0.568913,-0.7547 0.900784,-1.0786 0.339766,-0.3239 0.70324,-0.6005 1.090423,-0.8296 0.387175,-0.2291 0.794108,-0.403 1.220801,-0.5216 0.426681,-0.1264 0.869171,-0.1896 1.327472,-0.1896 1.287955,0 2.248,0.3832 2.88014,1.1496 0.64002,0.7666 0.960036,1.8372 0.960046,3.2121 l 0,7.4433 -0.284458,0 0,-7.4433 c -1.1e-5,-0.6479 -0.07111,-1.2247 -0.213344,-1.7305 -0.142239,-0.5136 -0.363484,-0.9482 -0.663736,-1.3037 -0.292369,-0.3556 -0.663744,-0.6242 -1.114128,-0.806 -0.442499,-0.1896 -0.964005,-0.2845 -1.56452,-0.2845 -0.908692,0 -1.746263,0.2451 -2.512715,0.7349 -0.766461,0.4819 -1.438097,1.1497 -2.014912,2.0031 l 0,8.83 -0.284459,0" />
    <path
       inkscape:connector-curvature="0"
       id="path3077"
       style="font-size:27.17762375px;font-style:normal;font-variant:normal;font-weight:100;font-stretch:normal;text-align:start;line-height:125%;letter-spacing:-2.41686726px;word-spacing:0px;writing-mode:lr-tb;text-anchor:start;fill:#000000;fill-opacity:1;stroke:none;font-family:Lato Latin Hair;-inkscape-font-specification:Lato Latin Hair Thin"
       d="m 36.628265,1036.3135 c 0.608418,0 1.181285,0.1107 1.718602,0.3319 0.537301,0.2133 1.003496,0.5334 1.398586,0.96 0.402973,0.4267 0.719037,0.9523 0.948194,1.5764 0.229137,0.6163 0.343709,1.3274 0.343721,2.1334 -1.2e-5,0.039 -0.01581,0.071 -0.04742,0.095 -0.02372,0.016 -0.05532,0.024 -0.09482,0.024 l -9.031551,0 c -0.0158,0.1105 -0.02371,0.2172 -0.02371,0.32 -2e-6,0.1025 -2e-6,0.2094 0,0.32 -2e-6,0.9639 0.114571,1.8173 0.34372,2.56 0.229145,0.7349 0.55311,1.3552 0.971899,1.8608 0.426683,0.4979 0.936339,0.8772 1.528963,1.1379 0.600518,0.2608 1.264253,0.3912 1.991208,0.3912 0.647926,0 1.20894,-0.071 1.683044,-0.2133 0.47409,-0.1424 0.86917,-0.3004 1.185244,-0.4742 0.316055,-0.1738 0.557053,-0.3319 0.722997,-0.4741 0.165925,-0.1422 0.264695,-0.2133 0.296311,-0.2133 0.0316,0 0.0632,0.016 0.09482,0.047 l 0.04742,0.047 c -0.134337,0.1659 -0.335829,0.3397 -0.604474,0.5215 -0.260763,0.1739 -0.572876,0.3358 -0.936341,0.486 -0.355582,0.1501 -0.746712,0.2726 -1.173391,0.3673 -0.426695,0.095 -0.865234,0.1423 -1.315619,0.1423 -0.79807,0 -1.513165,-0.1383 -2.14529,-0.4149 -0.632133,-0.2845 -1.169442,-0.6913 -1.611929,-1.2208 -0.434592,-0.5294 -0.77041,-1.1772 -1.007457,-1.9437 -0.23705,-0.7665 -0.355575,-1.6357 -0.355574,-2.6075 -1e-6,-0.8534 0.114573,-1.6317 0.343721,-2.335 0.229145,-0.7112 0.561013,-1.3196 0.995604,-1.8253 0.434586,-0.5057 0.963994,-0.8968 1.588226,-1.1734 0.632125,-0.2844 1.34722,-0.4266 2.145289,-0.4266 m 0,0.237 c -0.695348,0 -1.323526,0.1146 -1.884536,0.3437 -0.553117,0.2212 -1.031165,0.5373 -1.434144,0.9482 -0.402985,0.403 -0.726951,0.8929 -0.971899,1.4697 -0.237051,0.5768 -0.391132,1.2129 -0.462245,1.9083 l 8.901174,0 c -1e-5,-0.7507 -0.106682,-1.4145 -0.320016,-1.9912 -0.213353,-0.5847 -0.509664,-1.0747 -0.888932,-1.4697 -0.371385,-0.3951 -0.809925,-0.6954 -1.31562,-0.9009 -0.50571,-0.2054 -1.046971,-0.3081 -1.623782,-0.3081" />
    <path
       inkscape:connector-curvature="0"
       id="path3079"
       style="font-size:27.17762375px;font-style:normal;font-variant:normal;font-weight:100;font-stretch:normal;text-align:start;line-height:125%;letter-spacing:-2.41686726px;word-spacing:0px;writing-mode:lr-tb;text-anchor:start;fill:#000000;fill-opacity:1;stroke:none;font-family:Lato Latin Hair;-inkscape-font-specification:Lato Latin Hair Thin"
       d="m 45.237784,1048.3082 c -0.679544,0 -1.212902,-0.1858 -1.600078,-0.5571 -0.387183,-0.3714 -0.580772,-0.9837 -0.58077,-1.8371 l 0,-8.6759 -1.920092,0 c -0.110623,0 -0.165935,-0.04 -0.165934,-0.1186 l 0,-0.071 2.086026,-0.047 0.09482,-4.6699 c -3e-6,-0.04 0.0079,-0.075 0.02371,-0.1066 0.0237,-0.039 0.0553,-0.06 0.09482,-0.06 l 0.07111,0 0,4.8359 3.958711,0 0,0.2371 -3.958711,0 0,8.6759 c -3e-6,0.3951 0.04741,0.7309 0.142229,1.0074 0.102719,0.2687 0.240995,0.49 0.414835,0.6638 0.173831,0.1659 0.375323,0.2883 0.604473,0.3674 0.229143,0.079 0.474093,0.1185 0.734852,0.1185 0.331861,0 0.62027,-0.051 0.865226,-0.1541 0.252845,-0.1025 0.466189,-0.2133 0.640032,-0.3318 0.173828,-0.1185 0.312107,-0.2292 0.414834,-0.3318 0.110616,-0.1025 0.189632,-0.1542 0.237048,-0.1542 0.0316,0 0.06321,0.016 0.09482,0.047 l 0.04741,0.047 c -0.118532,0.1579 -0.264712,0.3081 -0.43854,0.4503 -0.165941,0.1343 -0.351628,0.2528 -0.557064,0.3556 -0.197546,0.095 -0.41089,0.17 -0.640031,0.2252 -0.221251,0.055 -0.442496,0.083 -0.663735,0.083" />
    <path
       sodipodi:type="arc"
       style="fill:#000000;fill-opacity:1;stroke-width:0;stroke-miterlimit:0;stroke-dasharray:none"
       id="path3002-7"
       sodipodi:cx="27.232143"
       sodipodi:cy="35.785713"
       sodipodi:rx="9.4642859"
       sodipodi:ry="9.4642859"
       d="m 36.696429,35.785713 a 9.4642859,9.4642859 0 1 1 -18.928571,0 9.4642859,9.4642859 0 1 1 18.928571,0 z"
       transform="matrix(0.17809257,0,0,0.17809257,14.236095,1041.9744)" />
  </g>
</svg>
