<?xml version="1.0" encoding="UTF-8" standalone="no"?>
<!-- Created with Inkscape (http://www.inkscape.org/) -->

<svg
   xmlns:dc="http://purl.org/dc/elements/1.1/"
   xmlns:cc="http://creativecommons.org/ns#"
   xmlns:rdf="http://www.w3.org/1999/02/22-rdf-syntax-ns#"
   xmlns:svg="http://www.w3.org/2000/svg"
   xmlns="http://www.w3.org/2000/svg"
   xmlns:sodipodi="http://sodipodi.sourceforge.net/DTD/sodipodi-0.dtd"
   xmlns:inkscape="http://www.inkscape.org/namespaces/inkscape"
   width="64"
   height="64"
   id="svg2"
   version="1.1"
   inkscape:version="0.48.4 r9939"
   sodipodi:docname="logo-laid-out-8.svg">
  <defs
     id="defs4" />
  <sodipodi:namedview
     id="base"
     pagecolor="#000000"
     bordercolor="#666666"
     borderopacity="1.0"
     inkscape:pageopacity="1"
     inkscape:pageshadow="2"
     inkscape:zoom="4"
     inkscape:cx="88.789721"
     inkscape:cy="33.884922"
     inkscape:document-units="px"
     inkscape:current-layer="layer1"
     showgrid="false"
     inkscape:window-width="1366"
     inkscape:window-height="716"
     inkscape:window-x="0"
     inkscape:window-y="0"
     inkscape:window-maximized="1"
     showborder="false"
     inkscape:showpageshadow="false"
     showguides="true">
    <inkscape:grid
       type="xygrid"
       id="grid3104"
       empspacing="5"
       visible="true"
       enabled="true"
       snapvisiblegridlinesonly="true" />
  </sodipodi:namedview>
  <metadata
     id="metadata7">
    <rdf:RDF>
      <cc:Work
         rdf:about="">
        <dc:format>image/svg+xml</dc:format>
        <dc:type
           rdf:resource="http://purl.org/dc/dcmitype/StillImage" />
        <dc:title />
      </cc:Work>
    </rdf:RDF>
  </metadata>
  <g
     inkscape:label="Layer 1"
     inkscape:groupmode="layer"
     id="layer1"
     transform="translate(0,-988.36218)">
    <path
       sodipodi:type="arc"
       style="fill:#ffffe8;fill-opacity:1;fill-rule:evenodd;stroke:#000000;stroke-width:0;stroke-linecap:butt;stroke-linejoin:miter;stroke-miterlimit:0;stroke-opacity:1;stroke-dasharray:none"
       id="path2985"
       sodipodi:cx="37.32143"
       sodipodi:cy="35.517857"
       sodipodi:rx="21.875"
       sodipodi:ry="21.875"
       d="m 59.19643,35.517857 a 21.875,21.875 0 1 1 -43.75,0 21.875,21.875 0 1 1 43.75,0 z"
       transform="matrix(1.4301676,0,0,1.4301676,-21.3759,969.56569)" />
    <path
       sodipodi:type="arc"
       style="fill:#000000;fill-opacity:1;stroke-width:0;stroke-miterlimit:0;stroke-dasharray:none"
       id="path3002"
       sodipodi:cx="27.232143"
       sodipodi:cy="35.785713"
       sodipodi:rx="9.4642859"
       sodipodi:ry="9.4642859"
       d="m 36.696429,35.785713 a 9.4642859,9.4642859 0 1 1 -18.928571,0 9.4642859,9.4642859 0 1 1 18.928571,0 z"
       transform="matrix(0.46865859,0,0,0.46865859,26.484177,971.12382)" />
    <path
       inkscape:connector-curvature="0"
       style="font-size:36px;font-style:normal;font-variant:normal;font-weight:bold;font-stretch:normal;text-align:start;line-height:125%;letter-spacing:-2.0999999px;word-spacing:0px;writing-mode:lr-tb;text-anchor:start;fill:#000000;fill-opacity:1;stroke:none;font-family:Lato Latin;-inkscape-font-specification:Lato Latin Bold"
       id="path3005"
       d="m 8.8204251,993.25313 3.5010609,0 c 0.319889,10e-6 0.592391,0.077 0.817506,0.23104 0.225106,0.15404 0.373205,0.34952 0.444298,0.58647 l 2.612466,9.73886 c 0.130319,0.5332 0.242874,1.0545 0.337665,1.5639 0.09477,0.5095 0.183636,1.0131 0.266579,1.5106 0.130319,-0.4975 0.266569,-1.0011 0.408753,-1.5106 0.154014,-0.5094 0.313961,-1.0307 0.479841,-1.5639 l 3.021221,-9.7744 c 0.07108,-0.23695 0.207327,-0.43244 0.408754,-0.58647 0.213249,-0.15401 0.46798,-0.23103 0.76419,-0.23104 l 1.937135,0 c 0.308032,10e-6 0.568686,0.077 0.781964,0.23104 0.225094,0.15403 0.373193,0.34952 0.444297,0.58647 l 2.932361,9.7744 c 0.154004,0.545 0.296179,1.0722 0.426526,1.5817 0.142155,0.5095 0.272482,1.019 0.390981,1.5284 0.09476,-0.5094 0.19547,-1.0189 0.302122,-1.5284 0.106611,-0.5095 0.231014,-1.0367 0.373209,-1.5817 l 2.683555,-9.73886 c 0.08292,-0.23695 0.231011,-0.43243 0.444298,-0.58647 0.213238,-0.15401 0.467968,-0.23103 0.76419,-0.23104 l 3.341115,0 -5.793635,18.23387 -3.518833,0 c -0.402848,0 -0.681274,-0.2606 -0.835278,-0.782 l -3.270028,-10.5387 c -0.225125,-0.72281 -0.396919,-1.42176 -0.515385,-2.09704 -0.142188,0.71088 -0.319907,1.42163 -0.533156,2.13254 l -3.323342,10.5032 c -0.142185,0.5214 -0.456155,0.782 -0.94191,0.782 l -3.376659,0 -5.7758609,-18.23387" />
    <path
       style="font-size:36px;font-style:normal;font-variant:normal;font-weight:bold;font-stretch:normal;text-align:start;line-height:125%;letter-spacing:-2.0999999px;word-spacing:0px;writing-mode:lr-tb;text-anchor:start;fill:#000000;fill-opacity:1;stroke:none;font-family:Lato Latin;-inkscape-font-specification:Lato Latin Bold"
       d="m 41.323571,993.25313 0,18.23387 -4.407428,0 0,-18.23387 4.407428,0"
       id="path3109"
       inkscape:connector-curvature="0" />
    <path
       inkscape:connector-curvature="0"
       style="font-size:36px;font-style:normal;font-variant:normal;font-weight:bold;font-stretch:normal;text-align:start;line-height:125%;letter-spacing:-2.0999999px;word-spacing:0px;writing-mode:lr-tb;text-anchor:start;fill:#000000;fill-opacity:1;stroke:none;font-family:Lato Latin;-inkscape-font-specification:Lato Latin Bold"
       id="path3009"
       d="m 47.793339,985.07807 0,26.40893 -4.389656,0 0,-26.40893 4.389656,0" />
    <path
       inkscape:connector-curvature="0"
       style="font-size:36px;font-style:normal;font-variant:normal;font-weight:bold;font-stretch:normal;text-align:start;line-height:125%;letter-spacing:-2.0999999px;word-spacing:0px;writing-mode:lr-tb;text-anchor:start;fill:#000000;fill-opacity:1;stroke:none;font-family:Lato Latin;-inkscape-font-specification:Lato Latin Bold"
       id="path3011"
       d="m 54.098974,985.07807 0,26.40893 -4.389655,0 0,-26.40893 4.389655,0" />
    <path
       inkscape:connector-curvature="0"
       id="path3053"
       style="font-size:36px;font-style:normal;font-variant:normal;font-weight:300;font-stretch:normal;text-align:start;line-height:125%;letter-spacing:-3.49000001px;word-spacing:0px;writing-mode:lr-tb;text-anchor:start;fill:#000000;fill-opacity:1;stroke:none;font-family:Lato Latin Light;-inkscape-font-specification:'Lato Latin Light, Light'"
       d="m 12.113589,1015.4732 c -0.1,0.1888 -0.244422,0.2832 -0.433267,0.2832 -0.144437,0 -0.333298,-0.1 -0.566581,-0.2999 -0.222202,-0.2111 -0.52771,-0.4388 -0.916527,-0.6832 -0.3888412,-0.2555 -0.8776556,-0.4888 -1.4664428,-0.6999 -0.5777009,-0.2111 -1.2942576,-0.3167 -2.1496728,-0.3167 -0.8554338,0 -1.6108736,0.1223 -2.2663217,0.3667 -0.6443527,0.2444 -1.1887138,0.5777 -1.6330846,0.9999 -0.4332726,0.422 -0.7665548,0.9108 -0.9998479,1.4664 -0.2221926,0.5554 -0.3332867,1.1387 -0.3332826,1.7496 -4.1e-6,0.8 0.166637,1.461 0.499924,1.9831 0.3443869,0.5222 0.794318,0.9666 1.3497945,1.3332 0.5554644,0.3666 1.183146,0.6776 1.8830466,0.9332 0.7109944,0.2444 1.4386606,0.4888 2.183001,0.7332 0.7443204,0.2444 1.466432,0.5166 2.1663372,0.8165 0.7109891,0.2888 1.3442261,0.6554 1.8997101,1.0998 0.555456,0.4445 0.999833,0.9943 1.33313,1.6497 0.344376,0.6445 0.516572,1.4499 0.516588,2.4163 -1.6e-5,0.9889 -0.172212,1.922 -0.516588,2.7997 -0.333297,0.8665 -0.822112,1.6219 -1.466443,2.2664 -0.64436,0.6443 -1.4331277,1.1553 -2.366306,1.533 -0.9332021,0.3667 -1.9997052,0.55 -3.1995129,0.55 -1.5553258,0 -2.8940096,-0.2723 -4.0160554,-0.8166 -1.12205482,-0.5555 -2.10523756,-1.311 -2.949551,-2.2664 l 0.46659551,-0.7332 c 0.13331103,-0.1666 0.28884264,-0.2499 0.46659559,-0.2499 0.0999823,0 0.22774059,0.067 0.38327505,0.1999 0.15552896,0.1333 0.34438892,0.3 0.56658044,0.5 0.22218481,0.1888 0.48881071,0.3999 0.79987831,0.6332 0.3110592,0.2221 0.6721151,0.4333 1.0831685,0.6332 0.4110429,0.1888 0.8831928,0.35 1.416451,0.4832 0.533245,0.1335 1.1387078,0.2001 1.8163903,0.2001 0.9331818,0 1.7663874,-0.1389 2.4996194,-0.4167 0.73321,-0.2888 1.3497821,-0.6777 1.8497182,-1.1665 0.51102,-0.4888 0.899849,-1.0664 1.166489,-1.7331 0.266612,-0.6776 0.399925,-1.3996 0.399939,-2.1663 -1.4e-5,-0.8331 -0.172211,-1.5164 -0.516588,-2.0496 -0.333296,-0.5444 -0.777672,-0.9944 -1.333131,-1.3498 -0.555482,-0.3666 -1.1887183,-0.6721 -1.8997097,-0.9166 -0.6999035,-0.2444 -1.4220151,-0.4832 -2.1663369,-0.7165 -0.7443389,-0.2334 -1.4720053,-0.4944 -2.1830011,-0.7832 -0.6998991,-0.2889 -1.3275808,-0.6555 -1.8830467,-1.0998 -0.5554749,-0.4555 -1.00540605,-1.0166 -1.34979465,-1.6831 -0.33328527,-0.6777 -0.49992656,-1.522 -0.4999239,-2.533 -2.66e-6,-0.7888 0.1499744,-1.5498 0.44993152,-2.283 0.29995102,-0.7332 0.73877272,-1.3776 1.31646633,-1.933 0.577685,-0.5666 1.2886871,-1.0165 2.1330087,-1.3498 0.8554179,-0.3443 1.8274913,-0.5166 2.9162227,-0.5166 1.2220256,0 2.3163024,0.1944 3.2828335,0.5833 0.9776142,0.3887 1.8663672,0.9832 2.6662602,1.783 l -0.399939,0.7666" />
    <path
       inkscape:connector-curvature="0"
       id="path3055"
       style="font-size:36px;font-style:normal;font-variant:normal;font-weight:300;font-stretch:normal;text-align:start;line-height:125%;letter-spacing:-3.6400001px;word-spacing:0px;writing-mode:lr-tb;text-anchor:start;fill:#000000;fill-opacity:1;stroke:none;font-family:Lato Latin Light;-inkscape-font-specification:'Lato Latin Light, Light'"
       d="m 13.939373,1036.1867 0,-22.7601 1.599757,0 0,8.9955 c 0.766545,-0.9442 1.638634,-1.6942 2.616269,-2.2496 0.988731,-0.5555 2.094117,-0.8333 3.316162,-0.8333 0.910962,0 1.710839,0.1444 2.399634,0.4333 0.699881,0.2889 1.27757,0.7054 1.73307,1.2498 0.455472,0.5443 0.799864,1.1998 1.033177,1.9663 0.233281,0.7667 0.34993,1.6332 0.349946,2.5996 l 0,10.5985 -1.599757,0 0,-10.5985 c -1.4e-5,-1.5552 -0.355514,-2.7717 -1.066504,-3.6493 -0.711015,-0.8889 -1.794182,-1.3332 -3.249505,-1.3332 -1.088731,0 -2.099688,0.2778 -3.032872,0.8332 -0.933197,0.5443 -1.766402,1.3054 -2.49962,2.283 l 0,12.4648 -1.599757,0"
       sodipodi:nodetypes="cccccsccccccscscccc" />
    <path
       inkscape:connector-curvature="0"
       id="path3057"
       style="font-size:36px;font-style:normal;font-variant:normal;font-weight:300;font-stretch:normal;text-align:start;line-height:125%;letter-spacing:-4.51999998px;word-spacing:0px;writing-mode:lr-tb;text-anchor:start;fill:#000000;fill-opacity:1;stroke:none;font-family:Lato Latin Light;-inkscape-font-specification:'Lato Latin Light, Light'"
       d="m 39.394025,1036.1867 c -0.333295,0 -0.538818,-0.1556 -0.616572,-0.4666 l -0.233298,-2.1163 c -0.455498,0.4443 -0.910984,0.8443 -1.366459,1.1998 -0.444387,0.3555 -0.910982,0.6554 -1.399786,0.8998 -0.488824,0.2444 -1.016521,0.4278 -1.583093,0.5499 -0.566588,0.1333 -1.188714,0.2001 -1.866382,0.2001 -0.566586,0 -1.116501,-0.083 -1.64975,-0.2501 -0.533255,-0.1667 -1.010959,-0.422 -1.433115,-0.7666 -0.41105,-0.3443 -0.744333,-0.7832 -0.999847,-1.3163 -0.24441,-0.5444 -0.366612,-1.1943 -0.366612,-1.9498 0,-0.6999 0.199969,-1.3498 0.599909,-1.9497 0.399938,-0.5998 1.027618,-1.122 1.883047,-1.5664 0.855421,-0.4443 1.949698,-0.7999 3.282834,-1.0666 1.344231,-0.2666 2.955095,-0.4221 4.832598,-0.4664 l 0,-1.7331 c -1.3e-5,-1.5332 -0.333295,-2.7108 -0.999849,-3.5328 -0.655466,-0.8333 -1.633094,-1.2499 -2.932887,-1.2499 -0.799885,0 -1.483113,0.1111 -2.049687,0.3332 -0.555477,0.2222 -1.027627,0.4667 -1.416452,0.7333 -0.388833,0.2667 -0.70545,0.5111 -0.949855,0.7332 -0.24441,0.2222 -0.449934,0.3333 -0.616572,0.3333 -0.122207,0 -0.222192,-0.028 -0.299955,-0.083 -0.07776,-0.056 -0.144425,-0.1276 -0.199969,-0.2166 l -0.283291,-0.4832 c 0.866533,-0.8665 1.777504,-1.5221 2.732917,-1.9665 0.955406,-0.4442 2.038572,-0.6664 3.249506,-0.6664 0.888744,0 1.666403,0.1444 2.332979,0.4332 0.666553,0.2778 1.216469,0.6833 1.649748,1.2165 0.444364,0.5222 0.777646,1.1609 0.999848,1.9164 0.222176,0.7443 0.333269,1.5776 0.333283,2.4997 l 0,10.7983 -0.633238,0 m -6.665652,-0.8833 c 0.644341,0 1.233139,-0.067 1.766398,-0.1999 0.544354,-0.1444 1.044277,-0.3389 1.499772,-0.5833 0.466585,-0.2555 0.899853,-0.5554 1.299802,-0.8999 0.399928,-0.3443 0.794312,-0.7164 1.183154,-1.1165 l 0,-4.316 c -1.577548,0.044 -2.938451,0.1667 -4.082712,0.3667 -1.144277,0.1889 -2.088577,0.4499 -2.832903,0.7832 -0.733225,0.3333 -1.277587,0.7333 -1.633084,1.1998 -0.344394,0.4555 -0.516592,0.9777 -0.516589,1.5664 -3e-6,0.5555 0.08887,1.0388 0.266627,1.4498 0.188856,0.4 0.433264,0.7333 0.733221,0.9999 0.31106,0.2554 0.666561,0.4443 1.066505,0.5666 0.399934,0.1221 0.816537,0.1832 1.249809,0.1832" />
    <path
       inkscape:connector-curvature="0"
       id="path3059"
       style="font-size:36px;font-style:normal;font-variant:normal;font-weight:300;font-stretch:normal;text-align:start;line-height:125%;letter-spacing:-5.40999985px;word-spacing:0px;writing-mode:lr-tb;text-anchor:start;fill:#000000;fill-opacity:1;stroke:none;font-family:Lato Latin Light;-inkscape-font-specification:'Lato Latin Light, Light'"
       d="m 42.8993,1013.3504 0,13.5969 0.766549,0 c 0.155527,0 0.299949,-0.022 0.433268,-0.065 0.144417,-0.043 0.299948,-0.1463 0.466596,-0.3089 l 6.648987,-6.1651 c 0.111085,-0.1301 0.233289,-0.2277 0.366611,-0.2928 0.133294,-0.076 0.299936,-0.1139 0.499924,-0.1139 l 1.399787,0 -7.315553,6.7832 c -0.199977,0.2276 -0.416611,0.4066 -0.649902,0.5367 0.177745,0.088 0.327721,0.1898 0.449933,0.3091 0.133305,0.1084 0.261062,0.2385 0.383275,0.3904 l 7.682163,8.1658 -1.383122,0 c -0.155551,0 -0.299973,-0.022 -0.433268,-0.065 -0.122222,-0.053 -0.238871,-0.1571 -0.349946,-0.309 l -6.965607,-7.2874 c -0.08888,-0.098 -0.177757,-0.1789 -0.266627,-0.2439 -0.07777,-0.065 -0.161092,-0.1139 -0.249961,-0.1465 -0.08888,-0.043 -0.19442,-0.07 -0.316618,-0.081 -0.1111,-0.023 -0.249968,-0.032 -0.416604,-0.032 l -0.749885,0 0,8.1658 -1.599756,0 0,-22.8362"
       sodipodi:nodetypes="ccsccccsccccccsccccccscccc" />
    <path
       inkscape:connector-curvature="0"
       id="path3061"
       style="font-size:36px;font-style:normal;font-variant:normal;font-weight:300;font-stretch:normal;text-align:start;line-height:125%;letter-spacing:-3.49000001px;word-spacing:0px;writing-mode:lr-tb;text-anchor:start;fill:#000000;fill-opacity:1;stroke:none;font-family:Lato Latin Light;-inkscape-font-specification:'Lato Latin Light, Light'"
       d="m 58.355316,1019.3392 c 0.933182,0 1.799715,0.1611 2.599604,0.4833 0.799862,0.3222 1.494201,0.7943 2.08302,1.4164 0.58878,0.6111 1.049821,1.3665 1.383122,2.2664 0.344373,0.8999 0.51657,1.933 0.516588,3.0996 -1.8e-5,0.2443 -0.03333,0.411 -0.09999,0.4998 -0.06665,0.089 -0.177769,0.1333 -0.333282,0.1333 l -12.064832,0 0,0.3167 c -4e-6,1.2443 0.144419,2.3385 0.433267,3.2829 0.28884,0.9442 0.699889,1.7385 1.233145,2.3829 0.533248,0.6333 1.177593,1.1109 1.933039,1.433 0.755434,0.3222 1.599749,0.4833 2.532948,0.4833 0.833197,0 1.555308,-0.089 2.166337,-0.2666 0.611006,-0.1889 1.122035,-0.3944 1.533102,-0.6166 0.42214,-0.2332 0.755423,-0.4388 0.999847,-0.6165 0.24439,-0.1888 0.42214,-0.2834 0.533254,-0.2834 0.144402,0 0.255497,0.056 0.333282,0.1668 l 0.433267,0.5331 c -0.266644,0.3333 -0.622147,0.6444 -1.066504,0.9333 -0.433287,0.2888 -0.922101,0.5388 -1.466444,0.7498 -0.53327,0.2001 -1.110956,0.3611 -1.733071,0.4832 -0.611029,0.1223 -1.227602,0.1834 -1.849718,0.1834 -1.13317,0 -2.166344,-0.1944 -3.099529,-0.5832 -0.933196,-0.4 -1.733074,-0.9777 -2.399635,-1.7331 -0.666569,-0.7554 -1.183155,-1.6775 -1.549764,-2.7662 -0.355502,-1.0999 -0.533254,-2.3552 -0.533252,-3.7661 -2e-6,-1.1887 0.16664,-2.283 0.499924,-3.2828 0.344389,-1.011 0.833203,-1.8776 1.466443,-2.5997 0.644342,-0.7333 1.427556,-1.3053 2.349643,-1.7163 0.933185,-0.4111 1.988578,-0.6167 3.166184,-0.6167 m 0.01667,1.1832 c -0.855434,0 -1.621983,0.1334 -2.29965,0.3999 -0.677681,0.2666 -1.266479,0.6499 -1.766398,1.1499 -0.488819,0.4998 -0.888758,1.0997 -1.199817,1.7996 -0.299958,0.7 -0.499927,1.4832 -0.599909,2.3497 l 10.998328,0 c -1.8e-5,-0.8887 -0.127778,-1.683 -0.383275,-2.3829 -0.244427,-0.711 -0.594372,-1.3109 -1.04984,-1.7998 -0.455506,-0.4888 -0.999862,-0.8609 -1.633086,-1.1165 -0.62214,-0.2665 -1.310923,-0.3999 -2.066353,-0.3999" />
    <path
       inkscape:connector-curvature="0"
       id="path3073"
       style="font-size:27.17762375px;font-style:normal;font-variant:normal;font-weight:100;font-stretch:normal;text-align:start;line-height:125%;letter-spacing:-3.98928666px;word-spacing:0px;writing-mode:lr-tb;text-anchor:start;fill:#000000;fill-opacity:1;stroke:none;font-family:Lato Latin Hair;-inkscape-font-specification:Lato Latin Hair Thin"
       d="m 15.407211,1049.0849 c -2e-6,-0.2446 0.08153,-0.4529 0.244599,-0.6251 0.172122,-0.1811 0.380483,-0.2717 0.625085,-0.2717 0.244595,0 0.452957,0.091 0.625085,0.2717 0.18118,0.1722 0.271772,0.3805 0.271776,0.6251 -4e-6,0.2446 -0.0906,0.453 -0.271776,0.6251 -0.172128,0.1631 -0.38049,0.2446 -0.625085,0.2446 -0.244602,0 -0.452963,-0.082 -0.625085,-0.2446 -0.163069,-0.1721 -0.244601,-0.3805 -0.244599,-0.6251" />
    <path
       inkscape:connector-curvature="0"
       id="path3075"
       style="font-size:27.17762375px;font-style:normal;font-variant:normal;font-weight:100;font-stretch:normal;text-align:start;line-height:125%;letter-spacing:-2.41686726px;word-spacing:0px;writing-mode:lr-tb;text-anchor:start;fill:#000000;fill-opacity:1;stroke:none;font-family:Lato Latin Hair;-inkscape-font-specification:Lato Latin Hair Thin"
       d="m 21.792617,1049.2166 0,-9.3259 0.05709,0 c 0.08882,10e-5 0.133225,0.051 0.133227,0.1523 l 0.02855,1.7986 c 0.215698,-0.3173 0.456775,-0.606 0.723231,-0.866 0.272794,-0.2601 0.564624,-0.4822 0.87549,-0.6661 0.310859,-0.1839 0.637581,-0.3236 0.980169,-0.4188 0.342578,-0.1015 0.697849,-0.1522 1.065814,-0.1522 1.034087,0 1.804898,0.3076 2.312437,0.923 0.513866,0.6155 0.770804,1.4751 0.770812,2.5789 l 0,5.9762 -0.228389,0 0,-5.9762 c -9e-6,-0.5201 -0.05709,-0.9833 -0.171292,-1.3894 -0.114202,-0.4123 -0.291837,-0.7613 -0.532907,-1.0467 -0.23474,-0.2855 -0.532914,-0.5011 -0.894523,-0.6471 -0.355278,-0.1522 -0.77399,-0.2284 -1.256138,-0.2284 -0.72958,0 -1.402057,0.1968 -2.017434,0.59 -0.615384,0.3869 -1.154634,0.9231 -1.617754,1.6083 l 0,7.0895 -0.228389,0" />
    <path
       inkscape:connector-curvature="0"
       id="path3077"
       style="font-size:27.17762375px;font-style:normal;font-variant:normal;font-weight:100;font-stretch:normal;text-align:start;line-height:125%;letter-spacing:-2.41686726px;word-spacing:0px;writing-mode:lr-tb;text-anchor:start;fill:#000000;fill-opacity:1;stroke:none;font-family:Lato Latin Hair;-inkscape-font-specification:Lato Latin Hair Thin"
       d="m 33.91702,1039.7385 c 0.488493,0 0.948443,0.089 1.379849,0.2665 0.431394,0.1712 0.805698,0.4282 1.122912,0.7707 0.323543,0.3426 0.577307,0.7646 0.761295,1.2657 0.183972,0.4948 0.275961,1.0658 0.275971,1.7129 -1e-5,0.031 -0.01269,0.057 -0.03807,0.076 -0.01904,0.013 -0.04442,0.019 -0.07613,0.019 l -7.251346,0 c -0.01268,0.089 -0.01904,0.1744 -0.01904,0.257 -2e-6,0.082 -2e-6,0.1681 0,0.2569 -2e-6,0.7739 0.09199,1.4591 0.275969,2.0554 0.183979,0.59 0.444087,1.0881 0.780329,1.494 0.342579,0.3998 0.751777,0.7043 1.227589,0.9136 0.48215,0.2094 1.015057,0.3141 1.598722,0.3141 0.520214,0 0.970646,-0.057 1.3513,-0.1712 0.380642,-0.1144 0.697848,-0.2412 0.951621,-0.3808 0.253757,-0.1395 0.447252,-0.2665 0.580487,-0.3806 0.13322,-0.1142 0.212521,-0.1713 0.237905,-0.1713 0.02537,0 0.05074,0.013 0.07613,0.038 l 0.03807,0.038 c -0.107857,0.1332 -0.269633,0.2727 -0.485326,0.4187 -0.209364,0.1396 -0.459956,0.2696 -0.751779,0.3902 -0.285493,0.1205 -0.599528,0.2189 -0.942104,0.2949 -0.34259,0.076 -0.694688,0.1143 -1.056298,0.1143 -0.640763,0 -1.214906,-0.1111 -1.722433,-0.3332 -0.507533,-0.2284 -0.938933,-0.555 -1.294202,-0.9801 -0.34893,-0.4251 -0.618555,-0.9452 -0.808878,-1.5606 -0.190325,-0.6154 -0.285487,-1.3133 -0.285486,-2.0936 -10e-7,-0.6851 0.09199,-1.31 0.27597,-1.8747 0.183978,-0.571 0.450432,-1.0595 0.799361,-1.4655 0.348925,-0.406 0.773981,-0.72 1.275171,-0.9421 0.507527,-0.2284 1.08167,-0.3425 1.722432,-0.3425 m 0,0.1902 c -0.558288,0 -1.062646,0.092 -1.513076,0.276 -0.444092,0.1776 -0.827912,0.4314 -1.15146,0.7613 -0.323553,0.3236 -0.583662,0.7169 -0.780329,1.18 -0.190326,0.4631 -0.314036,0.9738 -0.371132,1.5322 l 7.146667,0 c -8e-6,-0.6028 -0.08565,-1.1357 -0.256938,-1.5988 -0.171299,-0.4694 -0.409204,-0.8628 -0.713715,-1.18 -0.298181,-0.3172 -0.650281,-0.5583 -1.056298,-0.7233 -0.40603,-0.1649 -0.840603,-0.2474 -1.303719,-0.2474" />
    <path
       inkscape:connector-curvature="0"
       id="path3079"
       style="font-size:27.17762375px;font-style:normal;font-variant:normal;font-weight:100;font-stretch:normal;text-align:start;line-height:125%;letter-spacing:-2.41686726px;word-spacing:0px;writing-mode:lr-tb;text-anchor:start;fill:#000000;fill-opacity:1;stroke:none;font-family:Lato Latin Hair;-inkscape-font-specification:Lato Latin Hair Thin"
       d="m 40.82952,1049.3689 c -0.545599,0 -0.973827,-0.1492 -1.284687,-0.4473 -0.310866,-0.2982 -0.466296,-0.7898 -0.466295,-1.475 l 0,-6.9658 -1.541623,0 c -0.08882,0 -0.133228,-0.032 -0.133227,-0.095 l 0,-0.057 1.67485,-0.038 0.07613,-3.7494 c -2e-6,-0.032 0.0063,-0.06 0.01904,-0.086 0.01903,-0.031 0.0444,-0.048 0.07613,-0.048 l 0.05709,0 0,3.8827 3.17841,0 0,0.1904 -3.17841,0 0,6.9657 c -3e-6,0.3173 0.03806,0.5869 0.114194,0.8089 0.08247,0.2157 0.193492,0.3934 0.333067,0.5329 0.139567,0.1332 0.301343,0.2315 0.485325,0.295 0.183977,0.063 0.380645,0.095 0.590006,0.095 0.266448,0 0.498009,-0.041 0.694682,-0.1238 0.203006,-0.082 0.374298,-0.1712 0.513875,-0.2664 0.139565,-0.095 0.250588,-0.184 0.333066,-0.2664 0.08881,-0.082 0.152254,-0.1238 0.190324,-0.1238 0.02537,0 0.05075,0.013 0.07613,0.038 l 0.03806,0.038 c -0.09517,0.1268 -0.212535,0.2474 -0.3521,0.3615 -0.133232,0.1079 -0.282318,0.203 -0.447261,0.2856 -0.158608,0.076 -0.3299,0.1364 -0.513875,0.1808 -0.17764,0.044 -0.355275,0.067 -0.532906,0.067" />
    <path
       sodipodi:type="arc"
       style="fill:#000000;fill-opacity:1;stroke-width:0;stroke-miterlimit:0;stroke-dasharray:none"
       id="path3002-7"
       sodipodi:cx="27.232143"
       sodipodi:cy="35.785713"
       sodipodi:rx="9.4642859"
       sodipodi:ry="9.4642859"
       d="m 36.696429,35.785713 a 9.4642859,9.4642859 0 1 1 -18.928571,0 9.4642859,9.4642859 0 1 1 18.928571,0 z"
       transform="matrix(0.17809257,0,0,0.17809257,14.236095,1041.9744)" />
  </g>
</svg>
